{
    "cri":[
        "Teknisi perlindungan kebakaran",
"Pegawai penerima dan laporan",
"Pegawai kontrol stok",
"Teknisi pelindung foto, berkas electron"

    ],
    "cra":[
        "Penerbit desktop",
"Pengecek dan perakit foto"

    ],
    "crs":[
        "Analis kredit",
"Pegawai tagihan",
"Pegawai biaya",
"Auditor malam",
"Pustakawan rekam",
"Pegawai produksi televisi",
"Perakit, alat musik",
"Inspektur baris perakit",
"Anggota perencana",
"Penyedia dokumen, mikrofilm",
"Perakit elektronik",
"Perakit perkakas",
"Pembawa pos/pesan",
"Pegawai hipotek",
"Penyalin musik",
"Pegawai kantor",
"Pegawai properti",
"Pegawai lalu lintas",
"Operator mesin pengolah kata",
"Perakit, produk kecil",
"Spesialis alam",
"Tukang parkir",
"Pemateri, saluran produksi"

    ],
    "cre":[
        "Operator radio saluran udara",
"Pegawai audit C.O.D",
"Reparasi pekerja pusat",
"Operator fotoradio",
"Koordinator pemeliharan pencegahan",
"Perakit, aksesorie elektrik",
"Perakit, barang-barang kulit",
"Operator derek penyangga",
"Inspektur pemotong (produk tekstil)",
"Pegawai penyampai pesan",
"Elektrologis",
"Inspektur barang tenunan",
"Pengecek makan",
"Perajut, tangan",
"Pembantu bidang/tanah",
"Pegawai pesan/pos",
"Pegawai pembayaran upah",
"Pegawai rute",
"Perakit, kontak papan penghubung",
"Pegawai konter (penyempurna foto)",
"Operator rumah gandum"

    ],
    "cir":[
        "Teknisi rekam medis",
        "Teknisi perlindungan kebakaran",
"Pegawai penerima dan laporan",
"Pegawai kontrol stok",
"Teknisi pelindung foto,berkas electron",
"Teknik Reliabilitas",
"Pengarah Audio Internal" ,
"Insinyur Penelitian Bahan Bakar Nuklir",
"Insiyur Penemuan Sumberdaya",
"Ahli Ilmu Radiofarmasi",
"Ahli Ilmu Biopsi",
"Ahli Ilmu Kimia",
"Ilmuan Penghasil Susu",
"Penata Pusat Data",
"Ahli Gigi",
"Peneliti Aeronaitikal",
"Insinyur Biomedis",
"Insinyur Kimia",
"Insinyur Kelautan",
"Insinyur Nuklir",
"Analis Lingkungan",
"Ahli Epidemiologi Lingkungan",
"Ahli Ilmu Bangsa-Bangsa",
"Ahli Ilmu Bumi",
"Ahli Ilmu Geologi",
"Ahli Ilmu Tata Air",
"Ahli Ilmu Biologi Kelautan",
"Ahli Ilmu Metalurgi",
"Analis Operasi Penelitian",
"Ahli Ilmu Patologi",
"Ahli Ilmu Periodonti",
"Ahli Ilmu Farmasi",
"Ahli Ilmu Psikiatrik",
"Ahli Ilmu Psikis",
"Ahli Ilmu Psikologi",
"Ilmuan, Insinyur dan Ahli Membuat Program",
"Ahli Ilmu Gempa",
"Ahli Perlindungan Tanah",
"Karyawan Ahli Ilmu Racun",
"Ahli Ilmu Kehewanan",
"Ahli Ilmu Akupunktur",
"Ahli Badaftarik Forensik",
"Analis Sistem PerangkatKeras Komputer",
"Mekanik",
"Teknisi Elektronik",
"Insinyur Pertanian",
"Analis Stres",
"Pembuat Program Komputer",
"Analis Laboratorium Kriminal",
"Pengatur Penerbangan",
"Pengatur Struktural",
"Pengembang Proyek Elektronik Komersil",
"Engineering Assistant, Mechanical",
"Asisten Insinyur, Peralatan Mekanik",
"Penjadawal Material",
"Teknisi Matematika",
"Teknisi Perlindungan bahan Bakar",
"Ahli Ilmu Racun",
"Analis Cephalometrik",
"Ahli Pembuat Program Foto",
"Perancang Percetakan",
"Pembuat Program Komputer",
"Teknisi Fungsi Penyakit Paru-Paru",
"Asisten Laboratorium Media",
"Teknisi Kalibrasi Laboratorium",
"Insinyur" ,
"Perakit Peralatan",
"Teknisi Audiovisual",
"Mekanik Mobil",
"Ahli control komputerisasi",
"Pemeriksa Konstruksi",
"Konvertor Gerbong",
"Perakit Elektronik",
"Pembuat Konsep Arsitektur",
"Teknisi Electrocadiograph",
"Pemeriksa Senjata Api",
"Teknisi Mikroelektrinik",
"Operator Mesin Cetak",
"Teknisi Planetarium",
"Pekerja Airport",
"Perawat Hewan",
"Pemasang Antenna/Satelit Komunikasi",
"Teknisi Perancang, Pembantu Komputer",
"Pelayan Kesehatan",
"Pemeriksa Furniture",
"Pekerja Isolasi",
"Pegawai Inventarisir",
"Tukang Reparasi Peralatan Medis",
"Teknisi Foto",
"Teknisi Kualitas Kontrol",
"Teknisi Pabrik Solar",
"Pengembang Peralatan Percetakan",
"Ahli Teknik Optik",
"Teknisi Instrumen",
"Ahli Analisa Arena Parkir",
"Ahli Analisa Kualitas Asuransi",
"Operator Stasiun Radio",
"Perancang Sistem Energi Matahari",
"Perakit dan Pengetes Elektronik",
"Operator Kamera Animasi",
"Ahli Teknik Sipil",
"Ahli Teknologi Pengunci",
"Pengetes Laboratorium",
"Mekanik Stasiun Pelayanan Mobil",
"Tukang Cat Elektristatik"

    ],
    "cia":[
        "Editor, situs web",
"Asisten editor"

    ],
    "cis":[
        "Spesialis keamanan komputer",
"Pemeriksa poligrafi",
"Koordinator keamanan komputer",
"Teknisi optalamik",
"Abstraktor",
"Akuntan",
"Analis dukungan pengguna (analis bantuan)",
"Pegawai rekam medis",
"Korektor",
"Ahli Mikrobiologi Kesehatan Publik",
"Ahli Pekerja Fisik",
"Ilmuan Bahasa",
"Penerjemah",
"Nalis Penelitian Pemasaran",
"Asisten Penelitian",
"Teknisi Lempengan Logam",
"Asisten optometrik",
"Agen sumber penghasilan dan pembayaran pasien" ,
"Telekomunikator"
    ],
    "cie":[
        "Akuntan, biaya",
"Inspektur bangunan",
"Analis investasi",
"Inspektur bebas",
"Pegawai sidik jari",
"Insinyur Admisitrasi Jalan Raya",
"Insinyur Fotogrametrik",
"Insinyur KOntrol Polusi",
"Insinyur Perlindungan Api",
"Auditor, kabupaten atau kota",
"Superintenden distribusi",
"Superintenden daya elektrik",
"Insinyur, pemeroleh",
"Pramuniaga kota",
"Kepala penentu bank",
"Insinyur, kesehatan industri",
"Insinyur, produksi",
"Insinyur, perlindungan radiasi",
"Pedagang pertukaran asing",
"Supervisi penyusunan dan percetakan desain sirkuit"

    ],
    "car":[

    ],
    "cai":[

    ],
    "cas":[
        "Seniman Polisi",
"Musisi Instrumen",
"Pembuat Salinan",
"Penata Efek Ruang",
"Penyanyi",
"Penulis tanganPerawat izin praktek"
    ],
    "cae":[

    ],
    "csr":[
        "Pegawai akuntansi",
"Ahli biografi",
"Pegawai perdagangan perantara",
"Pegawai keuangan",
"Pegawai koleksi",
"Operator komputer",
"Operator perlengkapan periferal komputer",
"Pegawai penugasan (transporasi bermotor)",
"Kumpulan kabinet",
"Pegawai keluhan",
"Pegawai berkas",
"Pengecek asuransi",
"Asisten produksi (eksplosif)",
"Pegawai kontrol kualitas (produk persiapan dan berhubungan dengan obat)",
"Monitor sistem pengawasan",
"Perakit (pakaian)"

    ],
    "csi":[
        "Abstraktor",
"Akuntan",
"Analis dukungan pengguna (analis bantuan)",
"Pegawai rekam medis",
"Korektor",
"Spesialis keamanan komputer",
"Pemeriksa poligrafi",
"Koordinator keamanan komputer",
"Teknisi optalamik",
"Perawat izin praktekSeniman Polisi",
"Musisi Instrumen",
"Pembuat Salinan",
"Penata Efek Ruang",
"Penyanyi"

    ],
    "csa":[
        "Penulis tangan",
        "Perawat izin praktek",
        "Seniman Polisi",
"Musisi Instrumen",
"Pembuat Salinan",
"Penata Efek Ruang",
"Penyanyi"

    ],
    "cse":[
        "Akuntan, sistem",
"Penentu judul",
"Penanggung jawab",
"Teller bank",
"Pegawai pengadilan",
"Pegawai pemasuk data",
"Ekspediter",
"Pagawai asuransi",
"Investigator, urusan dalam",
"Koordinator media",
"Pegawai personalia",
"Analis reting, muatan",
"Sekretaris",
"Pegawai keamanan (klerikal)",
"Agen tiket",
"Pegawai lalu lintas (jasa bisnis)",
"Penyampai laporan pengadilan",
"Asisten perpustakaan",
"Pembaca meteran",
"Inspektur minyak tanah",
"Pegawai pos",
"Resepsionis",
"Operator telepon",
"Teller (cahaya, panas, dan daya)",
"Penjaga waktu"

    ],
    "cer":[
        "Akuntan, properti",
"Analis keuangan",
"Pendaftar, museum",
"Investigator, akun pedagang",
"Pegawai pergantian stok",
"Pegawai keperluan",
"Pengecek penyiaran",
"Pegawai kartu kredit",
"Operator asisten direktur",
"Pelukis, kartun animasi",
"Pekerja tiket",
"Pekerja persediaan pusat",
"Kasir, kafetaria"

    ],
    "cei":[
        "Inspektur bebas",
"Pegawai sidik jari",
"Auditor, kabupaten atau kota",
"Superintenden distribusi",
"Superintenden daya elektrik",
"Insinyur, pemeroleh",
"Pramuniaga kota",
"Kepala penentu bank",
"Insinyur, kesehatan industri",
"Insinyur, produksi",
"Insinyur, perlindungan radiasi",
"Pedagang pertukaran asing",
"Supervisi penyusunan dan percetakan desain sirkuit",
"Insinyur Admisitrasi Jalan Raya",
"Insinyur Fotogrametrik",
"Insinyur KOntrol Polusi",
"Insinyur Perlindungan Api"

    ],
    "cea":[

    ],
    "ces":[
        "Insinyur, peneliti pencegahan kebakaran",
"Ajudan distrik kongresional",
"Pagawai koresponden",
"Pegawai tenaga kerja",
"Inspektur kebakaran",
"Pegawai informasi (transportasi bermotor)",
"Sekertaris medis",
"Pemeriksa aplikasi passport",
"Pegawai pendapatan",
"Koordinator kontrol kualitas",
"Agen pemesanan (transportasi udara)",
"Penyedia pajak",
"Supervisi pemrosesan kata",
"Pengecek kasir",
"Kredit pemberi kuasa",
"Pengendali, jasa pemeliharaan",
"Pegawai referral, agensi bantuan temporer",
"Pegawai reservasi (klerikal)",
"Pegawai pengirim pesanan (klerikal)"


    ]
}